{"count":50,"next":"?offset=10","previous":null,"results":[{"address":"2259 Christina Hills","country":"CM","division":"Painting products","id":1,"name":"Barnes Ltd"},{"address":"6574 Jeffery Trace","country":"NE","division":"Automotive","id":2,"name":"Wilkins-Fernandez"},{"address":"09696 Gail River Apt. 587","country":"SN","division":"Painting products","id":3,"name":"Hernandez, Huber and Payne"},{"address":"8287 Miller Mall Apt. 627","country":"KI","division":"Chemicals","id":4,"name":"Lopez, Jimenez and Kim"},{"address":"20527 Jose Valleys","country":"ST","division":"Tires","id":5,"name":"Gomez Group"},{"address":"221 Owens Manor","country":"MY","division":"Aerospace","id":6,"name":"Brooks Inc"},{"address":"55846 Jason Keys","country":"HN","division":"Automotive","id":7,"name":"Reed, Crawford and Brock"},{"address":"025 Karen Crescent Suite 257","country":"MW","division":"Painting products","id":8,"name":"Young, Pineda and Cook"},{"address":"659 Scott Junction","country":"SG","division":"Automotive","id":9,"name":"Kelley-Aguilar"},{"address":"210 Paul Burg Apt. 285","country":"TO","division":"Pet food","id":10,"name":"Tucker, Allen and Andersen"}]}
