{"count":50,"next":"?offset=20","previous":"?offset=0","results":[{"address":"56411 Dominic Rapids","country":"ZA","division":"Healthcare","id":11,"name":"Smith Ltd"},{"address":"0553 Kim Mill","country":"TZ","division":"Tires","id":12,"name":"Martin, Warren and Sanchez"},{"address":"2102 Wright Cape","country":"BY","division":"Healthcare","id":13,"name":"Weaver LLC"},{"address":"11041 Christopher Groves","country":"BT","division":"Pet food","id":14,"name":"Obrien-Lewis"},{"address":"190 Walker Turnpike Suite 624","country":"KE","division":"Healthcare","id":15,"name":"Lewis, Obrien and Nguyen"},{"address":"305 Price Passage Suite 442","country":"VU","division":"Aerospace","id":16,"name":"Austin, Griffith and Williams"},{"address":"4542 Sullivan Rapids Suite 247","country":"LI","division":"Painting products","id":17,"name":"Hill LLC"},{"address":"74550 Moses Street Apt. 788","country":"ST","division":"Pet food","id":18,"name":"Hernandez, Vega and Martinez"},{"address":"8869 Davis Knolls Apt. 499","country":"CA","division":"Pet food","id":19,"name":"Harrison-Smith"},{"address":"538 Clark Court Suite 919","country":"FM","division":"Tires","id":20,"name":"Shepherd-Davidson"}]}